Plotly
…
## The following object is masked from 'package:stats':
## 
##     filter

## The following object is masked from 'package:graphics':
## 
##     layout

data("instacart")
instacart %>% 
  janitor::clean_names() 

## # A tibble: 1,384,617 × 15
##    order_id product_id add_to_cart_order reordered user_id eval_set order_number
##       <int>      <int>             <int>     <int>   <int> <chr>           <int>
##  1        1      49302                 1         1  112108 train               4
##  2        1      11109                 2         1  112108 train               4
##  3        1      10246                 3         0  112108 train               4
##  4        1      49683                 4         0  112108 train               4
##  5        1      43633                 5         1  112108 train               4
##  6        1      13176                 6         0  112108 train               4
##  7        1      47209                 7         0  112108 train               4
##  8        1      22035                 8         1  112108 train               4
##  9       36      39612                 1         0   79431 train              23
## 10       36      19660                 2         1   79431 train              23
## # … with 1,384,607 more rows, and 8 more variables: order_dow <int>,
## #   order_hour_of_day <int>, days_since_prior_order <int>, product_name <chr>,
## #   aisle_id <int>, department_id <int>, aisle <chr>, department <chr>

Plots

scatter plot of the top product in fresh vegetables and fruits order

instacart %>% 
  group_by(aisle) %>% 
  summarise(n_obs = n()) %>% 
  filter(n_obs > 10000) %>% 
  arrange(desc(n_obs))

## # A tibble: 39 × 2
##    aisle                          n_obs
##    <chr>                          <int>
##  1 fresh vegetables              150609
##  2 fresh fruits                  150473
##  3 packaged vegetables fruits     78493
##  4 yogurt                         55240
##  5 packaged cheese                41699
##  6 water seltzer sparkling water  36617
##  7 milk                           32644
##  8 chips pretzels                 31269
##  9 soy lactosefree                26240
## 10 bread                          23635
## # … with 29 more rows

instacart %>% 
  filter(aisle %in% c("fresh vegetables", "fresh fruits")) %>% 
  group_by(aisle,product_name) %>% 
  summarize(n_obs = n()) %>% 
  arrange(desc(n_obs)) %>% 
  filter(n_obs > 1000)

## # A tibble: 68 × 3
## # Groups:   aisle [2]
##    aisle            product_name           n_obs
##    <chr>            <chr>                  <int>
##  1 fresh fruits     Banana                 18726
##  2 fresh fruits     Bag of Organic Bananas 15480
##  3 fresh fruits     Organic Strawberries   10894
##  4 fresh fruits     Large Lemon             8135
##  5 fresh fruits     Organic Avocado         7409
##  6 fresh fruits     Organic Hass Avocado    7293
##  7 fresh fruits     Strawberries            6494
##  8 fresh fruits     Limes                   6033
##  9 fresh vegetables Organic Cucumber        4613
## 10 fresh vegetables Organic Zucchini        4589
## # … with 58 more rows
…
boxplot

# firstly we check what are the popular packaged cheese
instacart %>%
  filter(aisle == "packaged cheese") %>% 
  group_by(product_name) %>% 
  count(product_name) %>% 
  arrange(desc(n)) 

## # A tibble: 791 × 2
## # Groups:   product_name [791]
##    product_name                                                       n
##    <chr>                                                          <int>
##  1 Organic Whole String Cheese                                     1993
##  2 Grated Parmesan                                                 1694
##  3 Feta Cheese Crumbles                                            1449
##  4 Organic Sticks Low Moisture Part Skim Mozzarella String Cheese  1342
##  5 Shredded Parmesan                                               1324
##  6 Sharp Cheddar Cheese                                            1262
##  7 Shredded Mild Cheddar Cheese                                    1036
##  8 Shredded Mozzarella                                              944
##  9 Organic American Cheese Singles                                  696
## 10 Organic Mexican Blend Finely Shredded Cheese                     664
## # … with 781 more rows
…
